{
  "equipment": [
    {
      "Weapons": [
        {
          "Dagger": "1d4",
          "Shortbow": "1d6",
          "Mace": "1d6",
          "Quarterstaff": "1d6",
          "Battle Axe": "1d8",
          "Greataxe": "1d12",
          "Longbow": "1d8",
          "Longsword": "1d8"
        }
      ],
      "Armors": [
        {
          "none": 10,
          "padded": 11,
          "leather": 11,
          "studded": 12,
          "mithral": 13,
          "hide": 12,
          "chain": 13,
          "scale": 14,
          "breastplate": 14,
          "splint": 15,
          "banded": 16,
          "half": 17,
          "plate:": 18
        }
      ],
      "Shields": [
        {
          "none": 0,
          "buckler": 1,
          "wooden": 2,
          "steel": 2
        }
      ]
    }
  ]
}